"p_oob_freq","p_oob_sim","p_oob_boxcox","p_oob_opti","pval_increase","pval_shap","pval_ks","Tcalc","k_est_x","theta_est_x"
0,0.0036077273750178,0.00681733271304497,0.00113906098260375,1,0.402259718426721,0.6299,0.135615921660123,5.80996643998157,0.238878035244838
0.0714285714285714,0.0077168024602553,0.0183279539056405,1,0,0.934922827226798,0.8166,0.114484316703046,3.46709776166435,0.158708691168239
0.0714285714285714,0.000559110803599938,0.00247898679821001,1,0,0.783710416129931,0.8628,0.108524852925746,6.74308427994904,0.307995919214101
0,0.00160654335522414,0.00352951505918286,1,0,0.821354219419373,0.9325,0.0967070096812352,7.2418637677488,0.295753105564806
0,0.00655986640071493,0.0048351183490698,1,0,0.42885150193369,0.678,0.130890277648438,4.27642447369894,0.184385744377186
0,0.00476106559780032,0.00752989174562224,1,0,0.888507328866251,0.9972,0.0708551302707374,4.22872664880663,0.19032644973552
0.0357142857142857,0.00599783276882149,0.0222756480058038,1,0,0.389508216254631,0.7465,0.12239432754178,3.77355483851782,0.172695736246486
0.0714285714285714,0.0000100108682353772,0.0000000549877842148661,1,0,0.268639718315253,0.5568,0.14446550513601,5.93945684809971,0.373740689002218
0,0.00664189512072322,0.00580241060366915,1,0,0.97369586737823,0.9972,0.0697006983820662,4.4798411729398,0.189532414090049
0,0.00100906759173014,0.00028933472541337,0.00022325456441985,1,0.497091686739792,0.7805,0.119522052323309,5.32920542516706,0.255590798092132
0.0357142857142857,0.00603867342797293,0.00123056605769267,1,0,0.349014721318887,0.6254,0.1360376451414,4.92906226539641,0.203603438450689
0,0.0101274071908004,0.0197442250536844,0.0047836501179479,1,0.596021055094095,0.6991,0.128414704677699,4.05874875553312,0.168688185792173
0.142857142857143,0.00488020828283409,0.00653933490900849,1,0,0.727913030464775,0.8608,0.10910783562735,3.00138553295042,0.155104476855515
0.0357142857142857,0.0170662870232375,0.0347311608746935,0.0137440186110994,1,0.341266193336634,0.8404,0.110990317897485,2.84584397801004,0.124486757780876
0,0.00143214870976949,0.00557271708113694,1,0,0.37122454272577,0.5688,0.143300388821315,5.59093063109481,0.254806056467938
0.0357142857142857,0.0209734017688977,0.0254159125099992,1,0,0.77690722738544,0.9965,0.0716362385260982,2.28685869502811,0.104586314128154
0,0.000225104242786989,0.0000295223259155764,1,0,0.96692967722895,0.6588,0.132096452255353,7.34007597399353,0.345592028425377
0,0.00931318513125068,0.016168905880148,1,0,0.69865271125759,0.6884,0.129549165045922,3.11831640272634,0.144935338912477
0.0357142857142857,0.0013816886201401,0.00233726741316731,1,0,0.640303051063566,0.9578,0.0908862694116421,5.15717389349533,0.243719346762265
0.0714285714285714,0.000700135948065284,0.00440478340847061,1,0,0.89397356923454,0.8967,0.10371731753209,5.38868267188615,0.265470840766124
0,0.00149618075046865,0.00598583767158156,1,0,0.197842271126357,0.8506,0.110450343532419,4.61542990034314,0.226794595996161
0,0.00287483274877931,0.00285357915331663,1,0,0.80791954419669,0.9629,0.0908411104871553,5.33984776020611,0.231868543238818
0.0357142857142857,0.0028905748786705,0.0178311352276774,1,0,0.410153253878965,0.9093,0.10000758611982,3.97717236135351,0.194325919985441
0.0714285714285714,0.00808435363573712,0.0146375697534177,1,0,0.495511043910747,0.8317,0.112526908330137,3.12686388687067,0.148177552867517
0,0.00152780245046391,0.00433287273877536,0.0000688118842402385,1,0.63223053150028,0.7748,0.119914269062755,6.0055468363232,0.264489312139178
0,0.00167800536253304,0.0148499693783078,0.000615764048163658,1,0.639146889457516,0.6726,0.13168278732953,4.30024062517065,0.215334226310117
0,0.0116399524513416,0.020642258962558,1,0,0.0516191832697045,0.331,0.172864889990415,3.61589298902746,0.153741079631464
0,0.00575251338105376,0.00572356191168133,0.00418707796904427,1,0.943726158093433,0.9353,0.0962861380747633,4.54116423584178,0.19447263221734
0,0.00524196629364015,0.0109589262611933,1,0,0.844187439579318,0.7987,0.116811709294184,3.65912373525321,0.172448751496367
0.0357142857142857,0.0107514783157155,0.0147425026231381,0.00828923598371822,1,0.891741260665694,0.9196,0.0990761564958222,3.65585729163619,0.156584178693611
0,0.0100162440967306,0.0110352807635973,1,0,0.0483945958866724,0.5433,0.145241315222833,3.43659420141642,0.152191909350466
0.0357142857142857,0.00240743076375682,0.00384194145297556,1,0,0.820503421230392,0.8582,0.109099142255736,4.14093554478662,0.202944040578642
0,0.0161957149471842,0.0193617647920712,1,0,0.902050312009234,0.9699,0.0882106903861886,3.45036501576386,0.141955582398853
0,0.00598306184232389,0.017800865357229,1,0,0.792497735932296,0.8346,0.112421811586566,4.01825019300967,0.179471912103152
0,0.00988795711970014,0.0150905003042192,0.00490774848690256,1,0.480787236514761,0.3796,0.166492978367052,3.34900472276564,0.150066130587792
0,0.00373748025133191,0.00336219238094926,1,0,0.698077115682837,0.8046,0.116570322030588,4.53093241106661,0.204021470074948
0.0714285714285714,0.00787161703971806,0.0125950263987813,1,0,0.99978477896372,0.9972,0.0700559515933321,4.80808001522222,0.194193122223642
0.0714285714285714,0.0145061985509644,0.0231485164281207,0.0071809927589046,1,0.208450916672024,0.3629,0.169033900538389,4.07583285811405,0.160857388682694
0,0.00196951456818162,0.00465592707807794,1,0,0.927494387778373,0.9052,0.101760042410547,5.89329142239854,0.255504644506959
0,0.000402741950735308,0.00115031095201334,1,0,0.515087688311608,0.9041,0.102400527533036,7.61024157679281,0.339127147920312
0,0.00688018045625516,0.00817935342143561,1,0,0.870649549044436,0.5341,0.146458524653678,5.23314997231053,0.208401285705711
0.0357142857142857,0.0122109794883777,0.0186876407557557,1,0,0.953906646494854,0.9475,0.0934177283508384,3.26303035691029,0.14312527574825
0,0.00558994290678416,0.0113745509078051,1,0,0.685131631964798,0.9836,0.0825963726097001,4.8501048511396,0.203336572707059
0,0.000296123818805394,0.000930537977041457,0.0000454504336939721,1,0.941707584038168,0.8517,0.110516033514916,6.42433764957869,0.313944531664712
0,0.000154370589125485,0.000493959939917854,1,0,0.677396444138367,0.9087,0.100940433380519,7.5795395873682,0.360983618899454
0,0.00196139157665332,0.00784317645193733,1,0,0.954712268463947,0.9692,0.0879297222205164,6.17787756072959,0.263142486766922
0.0357142857142857,0.00413261882666605,0.00650077560922524,1,0,0.998633790557702,0.9471,0.0933411793799735,4.06558680397679,0.188982296995909
0.0357142857142857,0.00139192687482681,0.000997508718375451,1,0,0.23080533866503,0.7115,0.126401054052118,5.1444847398323,0.243201165096315
0.0357142857142857,0.00260666946650501,0.00428406509277024,1,0,0.846079812057352,0.892,0.105063407388988,4.67588901144032,0.216117589603161
0.0357142857142857,0.00771645758562278,0.0140424461207238,0.00345216708085472,1,0.743858975217259,0.73,0.124628940485815,4.31420116693447,0.181685346122836
