"p_oob_freq","p_oob_sim","p_oob_boxcox","p_oob_opti","pval_increase","pval_shap","pval_ks","Tcalc","k_est_x","theta_est_x"
0.464285714285714,0.0287034447048802,0.0305415174477467,1,0,0.490136716431325,0.7367,0.123942788040422,9.79091214403622,0.275741432404997
0.5,0.0391910249056477,0.0163017072589421,0.0120779193496687,1,0.950727902102312,0.2477,0.188952182805217,11.7937945957087,0.307985781940556
0.321428571428571,0.0619629940318392,0.0394739103555615,1,0,0.410585011036159,0.3535,0.169679292835586,14.5239594945349,0.346493256850352
0.535714285714286,0.0192700279944833,0.00501065663941225,0.034188177564478,1,0.978667207987824,0.1839,0.201231105373444,7.56697247183754,0.238098328756256
0.392857142857143,0.109118743573868,0.0854875430821056,0.154836427134267,1,0.0307171977453217,0.0188,0.279716390478082,5.29571513003122,0.13698549629282
0.392857142857143,0.0843235289845589,0.050242232962446,1,0,0.732581096589149,0.4753,0.153342515238932,9.04697030205549,0.223663516037281
0.464285714285714,0.0761818499275291,0.0414815731313829,0.0349708054673477,1,0.535255726658725,0.1152,0.219029425562291,7.91300242768748,0.203616773473179
0.5,0.0131738321348039,0.0261605717826626,1,0,0.178786062343494,0.3336,0.173498845906723,17.4060020352093,0.465783432124223
0.392857142857143,0.0313810146500965,0.00763779375951323,1,0,0.783733964118605,0.4262,0.159170480008339,20.1113542923194,0.487238161171836
0.392857142857143,0.0404715146800204,0.0246173062928721,0.0240408228212498,1,0.717389660990352,0.7628,0.121490691344965,9.81096719409998,0.264909548694288
0.285714285714286,0.0772989049791225,0.0499774266024654,1,0,0.461258605260492,0.4876,0.152743862880589,11.3661691932809,0.274132522293791
0.428571428571429,0.0474024816750852,0.015040796795217,0.0847949506724417,1,0.675854590929541,0.1226,0.215639895514468,10.3730589355746,0.271449710004297
0.392857142857143,0.0438421462347836,0.0335208461200154,1,0,0.967291831613688,0.7157,0.126341862016126,14.7122884296878,0.36414387061901
0.357142857142857,0.0665636702625897,0.0599958789156815,1,0,0.0599910796498636,0.3694,0.167157922488652,10.088909771192,0.253565228855856
0.25,0.0368816453202419,0.0154691560854663,1,0,0.754248109956684,0.4169,0.161275319071418,15.1766420489797,0.380395301096609
0.392857142857143,0.0328652538849533,0.0338402104270381,1,0,0.638966486487125,0.8797,0.105645264960829,15.7885315699163,0.39744715197767
0.5,0.041955420742852,0.0192697225593317,0.035562930138726,1,0.585867257890731,0.3716,0.166630770256037,14.3263589371463,0.357960744934635
0.321428571428571,0.0312026878483217,0.0193236604973877,0.0169817934472533,1,0.94904866727585,0.2591,0.184427211353993,19.4544550902009,0.474225856419482
0.357142857142857,0.0791918384522597,0.0528300721230689,0.118842597584021,1,0.638746699941178,0.2827,0.180582417158292,6.14996270559592,0.164947728333236
0.285714285714286,0.0185234826135368,0.016853455495329,0.0146713228628192,1,0.921639640607328,0.8999,0.103602682013333,13.9067671289018,0.379205739384212
0.428571428571429,0.0423608524381957,0.0334379266768053,1,0,0.672930814972171,0.8811,0.105816513144889,15.1989820092739,0.37542303427325
0.357142857142857,0.0206333661578801,0.01127752207351,1,0,0.687609740928409,0.2117,0.195218157660462,21.3046030977797,0.529021147520501
0.321428571428571,0.0622298208134237,0.0437226646662013,1,0,0.385000988355293,0.3803,0.165331608417816,13.6581179632378,0.328905200109623
0.428571428571429,0.0443624836516792,0.0302024648752491,1,0,0.9743090573407,0.9521,0.092630944411164,21.8670059533813,0.506935511915714
0.285714285714286,0.0464900615113876,0.0231002018302044,1,0,0.489601701801694,0.2493,0.187148813989595,20.2014192310973,0.471903867834265
0.25,0.0490944289048567,0.0303686830521075,0.0908447791477334,1,0.282602362939555,0.2458,0.188204024357934,11.8110481386212,0.300219671696968
0.392857142857143,0.0652135286563372,0.041062820969444,1,0,0.678470573076006,0.5885,0.14039070719997,13.7101405575025,0.328076365833974
0.464285714285714,0.106174127434269,0.0866901077202261,0.165608466299366,1,0.101598757745125,0.0571,0.246808524339229,8.60378577541564,0.206373077836116
0.285714285714286,0.0823236313067293,0.0560236722917037,1,0,0.255116503246025,0.5315,0.146903526534018,8.24673921140441,0.207971659355291
0.464285714285714,0.0556764480854838,0.0465675637482045,1,0,0.753152095296741,0.8719,0.107326730813621,8.73082081625405,0.231290672301426
0.464285714285714,0.107093995629429,0.0574446090819773,0.0979291951055402,1,0.575711240460983,0.3805,0.166962079972257,11.075512944698,0.255557715321633
0.5,0.0366498718777943,0.00580239771581614,0.064713441168182,1,0.721232178519757,0.2478,0.187714402412006,9.02769504807562,0.251290524640963
0.357142857142857,0.04216071366008,0.0427269364873452,1,0,0.511670412743248,0.5261,0.148303061281889,13.3821863804709,0.338354509783657
0.392857142857143,0.0504720199414685,0.0381896069139248,1,0,0.336728652096358,0.4096,0.161187639686365,13.7570552764064,0.339159693286506
0.464285714285714,0.051358311479171,0.0476908211015252,1,0,0.562535204313056,0.2625,0.184275123981134,13.1234861701149,0.325549563484191
0.464285714285714,0.0454034540518344,0.0478926136849003,1,0,0.75779224010449,0.6341,0.135838464602143,9.2862310416321,0.249876354556653
0.5,0.0262505578112761,0.0233698535322331,1,0,0.938213122878579,0.5935,0.139871346107786,8.81751780351886,0.25716683297818
0.5,0.0816710426172471,0.0706296596976448,1,0,0.167561986162641,0.1173,0.218716154314775,10.5580695798975,0.25567432256701
0.428571428571429,0.0353620328948512,0.0138676962968115,1,0,0.180931258093015,0.2974,0.179122464822183,11.4874049445362,0.305151594122121
0.392857142857143,0.0710049540749709,0.0514126312382034,0.111177467040481,1,0.480682186330198,0.1428,0.210606955117615,7.18518896356753,0.190512498599631
0.571428571428571,0.107545166429383,0.0647412372908606,0.0805258737568965,1,0.15295467378178,0.0916,0.231006557481296,15.9455363456402,0.350458696150122
0.285714285714286,0.0791908319756652,0.0336155832185193,0.140146072347976,1,0.0467611984722008,0.0819,0.231850921404619,12.4771216514679,0.295549012239785
0.321428571428571,0.0604231133418762,0.0491381597259265,0.0399259542315998,1,0.358958159002633,0.5062,0.14900257148093,8.51013174504608,0.223899436974127
0.607142857142857,0.0271709355595617,0.0209923017644911,1,0,0.471230152408444,0.3094,0.175905088004009,9.47247457658445,0.270533902590034
0.357142857142857,0.0534050530620527,0.0290506576412088,0.0462059429512073,1,0.431846710056795,0.5899,0.140476534824573,12.7995011738676,0.317428477563721
0.571428571428571,0.0592169612627905,0.0427012128487879,0.0922943534798434,1,0.772614338121624,0.342,0.173011916164946,6.52009817258106,0.181761208964975
0.392857142857143,0.0489046771402551,0.0482685845242772,1,0,0.208369731139554,0.432,0.159575780290131,23.3138483033472,0.530769046410536
0.464285714285714,0.0760995460676057,0.0331814586254267,0.133100380231371,1,0.910888026139327,0.2908,0.177862075225344,11.7140123208258,0.281765195856624
0.428571428571429,0.0807638180351063,0.0314530366182493,1,0,0.393808213478164,0.201,0.195929636970713,9.14767987490774,0.227264187481443
0.464285714285714,0.0504992559131703,0.0191368536469309,1,0,0.946691514822916,0.2057,0.195230452193478,17.943117444934,0.423425310780185
