"min","max","mean","25%","50%","75%","88%","91%","25%_oob","50%_oob","75%_oob","88%_oob","91%_oob","cor_coef","pval_shap_norm","pval_lillie_norm","pval_ks_gamma","pval_shap_boxcox","prop_oob","prob_oob_ks_gamma","prob_oob_boxcox"
17.6244699640598,39.7488832845083,31.7801149497823,30.2226377143048,34.4997719049208,35.2580927183687,37.0922937697349,37.7564411484283,0,0,0,32.7442392154745,34.5794174413662,0.606394274967387,0.208557862489661,0.16174340708881,0.0092,0.813550825434189,0.785714285714286,0.00169362829063169,0
3.04633314350747,55.8233023453496,31.6135330123736,21.5487960001247,35.3943594748035,41.5036707151008,48.4066558904413,49.8491209975966,0,0,27.1239048109814,37.3338513245861,42.0340350190573,0.377076726220709,0.718284385310863,0.312594927033259,0.0275,0.718284385310865,0.607142857142857,0.0990723453022953,0.0434727455903663
13.4695742073126,48.355037974029,34.4131475080739,32.9617327736893,35.340786498444,40.188185378193,44.1703836407168,45.2165472240448,0,0,0,33.7158126305369,35.5186022846763,0.597949921782555,0.469193816483775,0.178397459151077,0.0034,0.897694236595307,0.785714285714286,0.0374988575970376,0.0012292208336766
27.0690728923445,54.4892057805376,41.9129073904833,37.3156340739073,40.7941945620613,47.6913257722349,53.8355921918492,54.0829565665151,0,0,39.7867421731075,45.4180189790312,50.0923229430956,0.583588222431217,0.560491056420086,0.667406741751395,0.5338,0.583166916609379,0.571428571428571,0.0294537980212211,0.0253131850670407
24.7997444954955,57.1120878226881,40.752275777921,34.8194503897004,41.5823444144457,47.5011440393814,53.3001997200513,53.322351367544,0,12.3998722477478,41.5175778621561,47.560093990379,51.4260725372764,0.311713631087842,0.416327542149783,0.556729330127296,0.2901,0.426796020516049,0.5,0.0438631212700986,0.029882560019722
8.71295773930396,55.7079932499063,32.3337427133126,25.8949618834115,28.3324389788639,44.3472241969343,51.1943108981548,52.2943827804182,0,0,25.8949618834115,33.0451460302712,41.8959268453462,-0.469088302607502,0.577843396874108,0.552450644837226,0.2549,0.680920181256205,0.642857142857143,0.0570617523073095,0.0479744923641151
7.37113787511179,57.1697181353076,39.6904616150196,32.8413524593591,39.7638900399242,50.2824964208081,53.2594410986275,54.1820900580198,0,0,32.8413524593591,47.1272082530883,49.9759919931024,-0.396920179039927,0.280993820611704,0.386256001719379,0.0244,0.802216849970162,0.642857142857143,0.133348193605878,0.0453519170619819
9.95960797298743,56.4642248074688,38.7950595262493,28.8213909085863,41.435213964589,51.7241060763769,54.0487917803657,54.3204698416488,0,0,31.9815309513617,48.6257933336932,52.03081155849,-0.145051296890788,0.458212848263053,0.839020501455352,0.4026,0.530320783328514,0.607142857142857,0.109901621889959,0.061475835315693
21.3014601506491,53.5565645383622,37.7046989708857,25.7472686089469,36.837655798443,48.6958828267976,53.2949542707382,53.4713469907797,0,0,34.2891823152563,46.1859504531869,50.4990043535748,-0.305372970552362,0.167761751513368,0.462182229718169,0.3117,0.18692362051499,0.571428571428571,0.0466243279049101,0.0487005671482318
20.1454357034186,57.1238181823711,39.2818148624765,25.2278884630269,33.8937757414801,54.6144373920825,55.9476154940425,56.1837674616287,0,0,33.0478362425593,54.5434041593898,55.1649608322733,0.727520824322648,0.0255916047648728,0.0644142932911122,0.08,0.0368568819356921,0.535714285714286,0.091866543459347,0.0991766457561127
20.6273483338794,58.5434562943217,41.4123963022746,31.043452255138,43.318410656298,53.6082924156105,56.8876254998133,57.2844701142224,0,0,31.043452255138,46.5567603351782,52.087815065832,0.00911684813807572,0.317617443665134,0.796510711952903,0.3347,0.349896452608504,0.642857142857143,0.106063030093966,0.0858289231801019
15.5901097213362,57.2687494155064,40.3674133865961,32.7914948192005,39.5255485496574,51.0789929849359,54.9986698711491,55.5163520772999,0,0,32.7914948192005,42.2624900987728,49.1396892413634,0.119477706715598,0.558100820301268,0.742168486967251,0.3417,0.604845263533685,0.642857142857143,0.0849772647746194,0.0517423310959594
30.2681575087759,56.4884198029106,44.849173421449,36.561748949432,48.0102102960598,51.2395534829739,55.6708174395416,56.0997734160508,0,0,36.561748949432,49.3096578345717,50.8459612705961,-0.201815549671026,0.226482155905989,0.226518035341581,0.0706,0.329415963593092,0.642857142857143,0.0675589785931625,0.0374451863626483
6.44318949911074,56.1437635764092,39.0211214459302,37.0712065792504,42.1050485234265,49.8893626719362,52.2419104331449,52.5377070875223,0,0,39.9080264092284,48.7244486903922,50.6579525805537,-0.339671067868707,0.0295949158347258,0.0629822903070482,0.0064,0.364651373747733,0.571428571428571,0.149391973328147,0.0386193755954659
27.6129657986634,48.851811949293,37.446500975022,30.7357007194879,37.6619284982752,45.0579471747003,46.1446426928601,46.8214350069684,0,0,28.8484960645996,39.3696406818218,42.8438647213704,-0.437330781210451,0.40093283627222,0.710778279233153,0.3158,0.40574098371694,0.678571428571429,0.00485155359651068,0.0094598530248452
9.86536649937159,55.0730347137901,39.7677678463491,32.7928879574162,42.8850109979844,49.9798766918002,52.443526722479,53.1009037203067,0,0,28.534963269089,47.8072458583636,49.7140331144634,0.423194490365387,0.274856989553319,0.466493587886074,0.2011,0.671369747977167,0.678571428571429,0.124312585962678,0.0402698046333727
26.1755364606183,57.7866879530063,45.6303629113093,42.1884877942522,45.715904157489,52.996662208675,56.4830549306173,57.4460097046853,0,0,43.9034128060941,51.2204905412772,53.614230791163,0.374844844400799,0.510774068019672,0.470040658983867,0.2301,0.731317852692442,0.571428571428571,0.0766865512346867,0.0395082199491757
11.3142838460784,53.8090330973563,39.0723552227733,34.6918481099661,37.7686830778541,50.4620352847882,52.4391883920893,52.7816495684061,0,0,28.1371496744703,46.013358897723,49.668644628627,0.134845012140932,0.276576679079227,0.411100840688682,0.1153,0.455349746784377,0.678571428571429,0.104133084491545,0.0361893958688227
41.4154658727944,57.412018215673,49.7955727077775,45.7765527857632,48.7441031719662,55.2539173429052,55.6907972607302,56.1211024994659,0,0,42.4739621388779,49.6645231102133,53.1950983583997,0.213279487652047,0.480048933270379,0.430537483639476,0.1215,0.495136653286986,0.714285714285714,0.0345934182889162,0.0425011421375537
18.4122769135085,56.4728277935375,38.5960149400104,29.6554285963561,38.3263377206155,48.3413274164203,52.2557324475135,54.7489032713397,0,9.20613845675426,37.6174840770627,48.3587552851531,49.1565872509297,-0.615633171189692,0.770201881445534,0.882695636731627,0.6746,0.773209256031675,0.5,0.053747559231656,0.0407991643871382
11.1430553411884,56.4978055352593,34.9142981738285,28.0560680514065,33.7432719554819,48.3154448500313,48.8607082124113,50.7699825431233,0,0,17.0775569363333,40.0517672806733,45.6186907551544,-0.128724797185038,0.606238243143718,0.895165221557009,0.3236,0.63106338206962,0.678571428571429,0.0837284890476919,0.0516403123660116
3.39084395939603,49.8331860852878,32.6255009918334,23.7333777136661,39.9704101757776,43.1542578033228,46.119306393277,47.0193336810516,0,0,23.7333777136661,42.0933826804365,43.0065220917688,0.312625053505051,0.133552534948631,0.0507637644538068,0.0111,0.210479620384993,0.642857142857143,0.103665182917127,0.0237443613658057
29.643855764837,56.964126156347,47.3379110748525,45.9376509704306,46.7925224350518,53.0447856134351,56.2640825141553,56.4390934247032,0,0,7.41096394120925,46.6888410869187,48.6764895540057,-0.265731021919861,0.191718908666663,0.105810757341832,0.0105,0.563652204625299,0.75,0.0890177285704146,0.0300251860588818
17.1715421356237,58.7477772134537,39.5098976157221,26.8137938218167,38.6811363848906,51.2517730590819,57.3506828026194,57.8150919869438,0,0,30.4961860126775,46.0384299911575,51.9035850273828,0.362116225511193,0.460787517325841,0.724970278328592,0.5884,0.484699680555805,0.607142857142857,0.0908417974791829,0.0863959140364838
11.9368262166401,58.2018305010261,43.8432248190002,39.860148064119,49.3702872705458,54.6699663312656,56.4321571407826,57.2550460561981,0,0,46.2899326530271,53.8379625407055,54.684419347861,-0.183220004596333,0.020762806658888,0.0972685500214012,0.0409,0.253434012675969,0.571428571428571,0.176195971916369,0.0766561916281234
16.2293697504868,52.7954947040124,34.0272723782181,21.2655087546693,33.5526140266309,45.7517577101839,50.7885588876868,52.0850557939572,0,0,26.4890925883545,44.2226647359686,46.7318087274499,-0.216694147838787,0.144887226313843,0.581993166490843,0.3214,0.157652097450633,0.571428571428571,0.0464902088724887,0.0513175412269393
22.0745063072091,57.9832371025539,38.7974860950129,29.7567699569889,35.7192191393059,46.948207400773,56.2993508794206,57.8837261193957,0,0,32.0727671297503,42.8211088386083,47.3763091479052,-0.388739996264477,0.396079088109159,0.752592574107255,0.7415,0.760210336321219,0.607142857142857,0.0477481607164589,0.0665545412497736
32.5554746240423,55.8065362165565,44.7642239616161,39.6425806658247,43.8821988707773,49.8072429311434,53.3226849680021,54.2374825526272,0,0,41.1045245700217,49.2238744306176,50.4921181745399,0.423119126204541,0.809268604314114,0.731644501420206,0.4388,0.819718449003105,0.571428571428571,0.0213345945628599,0.0208287118144588
21.6904023673227,55.4180338432272,39.8149387233431,30.2246057946795,40.3538785857497,49.6226701038061,52.4692205687018,52.8873194418361,0,22.6497080192907,41.5490693340612,49.675691337177,51.5463123906569,-0.139266204055236,0.460464772892564,0.796061950841212,0.6687,0.475265502049026,0.464285714285714,0.0507578761913252,0.0315945634270437
9.3444944690744,56.122744424786,37.1317831934154,27.2973688852461,40.7917009126083,50.0757805983846,52.7899221511495,53.3864993753996,0,0,27.4780315926891,47.6802265744453,50.291932417709,0.00587995161238199,0.367047907548481,0.366865134954296,0.2433,0.385044761265209,0.607142857142857,0.097847795396546,0.0587335174113437
30.4057083454667,56.1428838897206,43.6210057489253,35.133582362472,44.114552199939,50.3506363092392,53.672827861966,54.2903418689046,0,0,33.3790148535516,48.3371185584999,50.0582037398469,0.522575521768908,0.516060339522928,0.513125886066785,0.1604,0.518288003388071,0.678571428571429,0.0460959150536332,0.0402555258987018
8.84327359016326,51.5113051524398,40.8223153019104,36.2037726355854,44.1229352643355,50.0568758406254,51.3377827789736,51.4109756272805,0,0,36.2037726355854,47.3975248414549,49.5457973956864,-0.0931064445904844,0.0126353068737646,0.277181895855296,0.0167,0.364757270300518,0.642857142857143,0.129419880705754,0.00713501658130333
30.3834181340149,56.581636179225,44.6051342491604,43.9198732874811,44.3076068378343,47.2718332609765,51.5741457269048,52.8260183399849,0,0,0,44.1343885493229,44.317724628034,-0.577212260507085,0.44080451996316,0.101363777798431,0.0036,0.526057979314598,0.785714285714286,0.0376301938729258,0.0206335125514555
23.7553129046311,54.3949643069217,38.7454392198844,35.2036521728717,37.1643978175863,39.3081274648524,52.4258026323692,53.7204135230729,0,0,35.2036521728717,38.763230776717,39.2726519968583,0.0468728964833056,0.176623439217497,0.032558379954955,0.0623,0.300522796209645,0.642857142857143,0.0150603790687799,0.0225492567443282
11.9781302438108,59.2497808386448,43.7970136905201,39.6968255247517,51.3129966295151,52.9586085363823,54.1741023888398,55.4430220012911,0,0,30.6545706262198,51.7347518439587,52.489620077233,-0.398667217721844,0.0777548437907854,0.122158387261585,0.0397,0.470850134147005,0.678571428571429,0.173838646435111,0.0800519207933217
19.4790956562333,56.6663949800836,42.0702513543438,35.4077037972508,44.5339477707888,51.1521789542753,52.9922078691282,53.9790650838896,0,0,40.3591697263087,50.5522034060678,51.325982038653,-0.371810084394606,0.486635462401158,0.272711344189339,0.2011,0.674138459331203,0.535714285714286,0.0733852385167894,0.0308755898127866
7.37715027131903,59.2415692257161,36.9831096354204,31.4755445009698,37.4087517040603,45.047120736808,56.9044913745846,58.1297109065943,0,0,31.4755445009698,42.0178236916277,44.4951556672884,-0.254974516949282,0.756752653763496,0.783396003611805,0.1033,0.804566005611232,0.642857142857143,0.115566631787461,0.0710002130165277
12.7232651658517,56.1118937517915,37.8691731124838,26.1097914754786,39.2864243131106,52.4437991782495,55.2971916933855,55.72317594266,0,0,30.5781706546556,49.2370940915011,52.6289098366763,-0.677904681665411,0.307612032957416,0.57025086695421,0.3731,0.312047092697679,0.607142857142857,0.103709585663753,0.0765201573274026
13.4851177464814,55.4563074371921,45.0715962818864,40.6681802042363,49.9145230798005,52.9675544253867,54.5717438933246,54.6826226676328,0,0,49.5795936828307,52.5476431087535,53.7836299088913,-0.282475676926849,0.00761849842424292,0.016171093221311,0.0268,0.199337590807217,0.535714285714286,0.147375331067038,0.0226524778333896
12.8255728417834,53.51266992133,39.3274014230092,28.0794336361169,45.8458286352083,51.4647948075676,51.7348181968172,52.0741684375716,0,0,28.0794336361169,50.5670573453838,51.2863084122986,0.303785988838905,0.0675494660978799,0.0444308161972961,0.0261,0.0726837283418344,0.642857142857143,0.109678505472896,0.051046818010112
17.4924916802319,54.1640032130993,41.3461047992134,32.9099564262367,48.1574637271801,52.2435355953776,52.8506107625903,53.1789588752176,0,0,21.7568686081106,48.6580861302225,50.7697715779846,-0.312047340366641,0.0120540245702832,0.00582967680658743,0.0009,0.0487495221502406,0.678571428571429,0.127706918200356,0.0390708385158409
24.9745402173441,47.0785717218365,39.7765548481229,37.9419402508741,40.6801807615487,44.7577474869625,46.1326641429213,46.3607853332583,0,0,37.9419402508741,42.3075499243104,44.262550275957,-0.473814056038942,0.236016310169465,0.409619657278151,0.1435,0.872601369575769,0.642857142857143,0.00412623640134357,0.000000000432058833155224
24.7129803587326,55.2484677713058,43.837636615062,39.4051067446954,44.8544090018484,51.552706120019,54.253624712125,54.9074940182065,0,0,43.5183928268659,50.9176303886512,52.5124655994605,-0.113183041157465,0.502315375929489,0.924719251971111,0.756,0.755812441161831,0.535714285714286,0.0576804013691027,0.0180789228481368
31.8400587801019,59.6007923642892,46.0331958173445,42.1591843243938,44.0022250674971,52.3644172436839,56.0780134971462,56.9587082139319,0,0,35.8604844093212,49.1775572613688,51.6968230860352,-0.5021633960181,0.726631970175709,0.877022361513152,0.4226,0.746744556123324,0.678571428571429,0.0728346662731806,0.0664782173063846
27.2433318304402,57.8954963386939,43.0569783619715,31.6731317682462,44.2379759679025,55.0359352392452,55.6695456574118,56.2260333277323,0,0,29.5223749392696,50.5988142857469,53.9917081166114,-0.445710217781848,0.10014769925385,0.236783531803828,0.0653,0.10173162913075,0.678571428571429,0.0914930248240248,0.0966499690200743
16.5597534976479,56.5351994425357,42.7052480876128,39.159897406635,43.9325699624631,49.9592731484191,51.8831570868001,53.6851220574785,0,21.0811558490041,45.0619309027775,49.9599467017831,50.2738763257076,-0.0098697349152366,0.131219162915417,0.323377388781865,0.2367,0.761037725192614,0.464285714285714,0.0886689228615009,0.0162594464689002
23.305661471928,52.7980368236696,38.0793392047541,30.074457029168,35.9484450948533,48.767834991838,52.7174672702569,52.7629169787134,0,0,30.074457029168,38.0177159699249,46.2322127940811,0.0969943579893434,0.144343991298138,0.291853748016522,0.1579,0.37713841241502,0.642857142857143,0.0288206097383618,0.0469457441474878
12.2611490973898,58.7043224397658,38.5519506691169,32.4832783022275,40.9604375737983,45.4653794437674,46.995877926555,49.3121708359913,0,0,32.4832783022275,44.0690939683298,45.3006802669625,-0.0248525841952764,0.615085809045038,0.191093972215651,0.0308,0.871638785590311,0.642857142857143,0.081602348520788,0.027778484905386
20.0099386728364,52.5322724124324,41.0713243369905,40.1957987167371,44.2263910188323,48.5641002295396,52.0680698670434,52.2954579883078,0,0,43.906675278523,47.949542836636,50.3597454553956,-0.00366916042331456,0.0210141979317485,0.0418099820763589,0.0211,0.19523522791978,0.535714285714286,0.0745532896957972,0.00516061387509259
22.9353416978333,48.7146040155379,37.2846746812942,32.592086687915,35.337511908464,44.877235997053,48.4919787020022,48.5476350303861,0,0,24.8366119308172,35.4869436932091,40.2199790323599,-0.375740109309482,0.564477544924482,0.470911649308073,0.3524,0.572264097888028,0.714285714285714,0.0108980791920167,0.00692677422924104
