"min","max","mean","25%","50%","75%","88%","91%","25%_oob","50%_oob","75%_oob","88%_oob","91%_oob","cor_coef","pval_shap_norm","pval_lillie_norm","pval_ks_gamma","pval_shap_boxcox","prop_oob","prob_oob_ks_gamma","prob_oob_boxcox"
15.0395797001538,51.4515125542546,33.8575416979568,23.4581203172,32.4550748126326,42.7372651179273,49.8489717916825,50.2109383961106,21.4694478497509,29.2893213076902,41.3934168278111,49.0788635282072,50.0220862546698,-0.054905397359619,0.121022474013129,0.435859708904463,0.5196,0.161499571051016,0.142857142857143,0.0282007922730346,0.0231350428653795
17.8567358747915,59.0699946036121,36.5567827209858,29.0709601838914,36.5637160184056,44.4977355868764,49.3405486460907,51.2827573402283,21.1537384085639,35.336264573126,42.3271041001901,48.3138540610906,50.2694310650261,-0.0555036688940317,0.703211779772389,0.719016751222773,0.7911,0.660984150226611,0.142857142857143,0.035196815880808,0.0225975110835188
21.5604367144283,49.4896979187683,34.1453567888146,28.3443547946282,31.9603532978606,40.2854266287535,43.5578663652442,45.0827520618918,22.9701952846184,30.2344754901739,39.9634249857749,42.1330491941812,43.7873959365839,0.25494318946002,0.437480446767425,0.347452898596639,0.5568,0.59254845524524,0.214285714285714,0.00275846930280343,0.00475003710516975
15.8819300021819,57.4467487543076,35.0899735125029,25.7549163469662,33.5748600185941,45.1204153406792,50.6809500009028,50.9937710684535,20.5260014021812,32.1773505308924,43.6314041848488,50.1509720871533,50.8305600766879,-0.289080483055322,0.336665712341394,0.62920544434285,0.7884,0.364426829087799,0.142857142857143,0.0384949915476538,0.0324329206693401
10.6917266241303,57.284538735392,34.0917956235592,27.1072029020246,33.5086688837657,44.4608219776202,47.9650012178909,50.9211591977609,12.8381033803585,29.7119033299895,42.3247903764921,46.0201979517917,48.9188512221155,0.226532192672352,0.671559235175031,0.907414957908795,0.6127,0.68740772648967,0.178571428571429,0.0522522993799452,0.0225707684850927
9.83432202009556,58.5970894155712,36.00751871887,28.857484390599,37.3160187656348,40.9411474836301,51.155390928733,51.9088066790124,25.9926196375465,34.8905768085435,40.8004716379346,49.4394450478861,51.6262757726576,0.229067564482001,0.897796535034615,0.628588976118838,0.8125,0.898100589519756,0.107142857142857,0.0390975652828432,0.017756821748882
15.9783242251128,56.9398726411362,38.5497592112861,28.4229741583144,37.5345088309888,51.1984728081565,52.8513443990979,54.8908288624306,25.8632817604007,35.3707282928333,48.7150158365424,52.4494175915194,54.1260221886808,0.114418877191576,0.146784715063689,0.475617182334505,0.6502,0.147941066362939,0.107142857142857,0.0685741241319496,0.0443805364326603
9.49075044767427,55.5677124057272,36.4909055725764,30.0859558824982,35.3394851492367,42.5012423290909,50.2637289406998,51.4252985112019,28.4240959133191,34.0758192688174,39.8708488046861,49.5019951231984,50.8192622135486,-0.00851250524456253,0.464094519392439,0.398355765565572,0.3513,0.54543310484654,0.142857142857143,0.0363223821102117,0.00896323604926919
9.73337778775312,56.050732098928,30.5977695415593,22.6280033503122,27.8159044904879,40.3423943634864,48.1556977276492,49.3104509337167,20.9401179263681,26.0693278495486,40.2594756492033,46.7620072379954,49.0333101642605,0.135296385803499,0.291193090608677,0.349816136918667,0.8619,0.819824738042079,0.0714285714285714,0.0217483498261636,0.0230061340642987
13.3967925288239,53.4328685117662,35.0522854676278,23.5015065733739,34.9269946604533,46.8492443555441,50.23286168467,52.6262887157854,20.8236623536648,32.8711067500299,46.5995383797637,49.6622403991244,51.7287535791171,-0.564111176264718,0.153924688388235,0.311425641217865,0.6412,0.154483295769309,0.107142857142857,0.0500254713854951,0.0300825578836402
13.4065631898366,56.5131789376618,33.8887011701045,24.2859665409082,33.3101269739772,39.5575433097602,50.8394401001885,54.1317994392168,21.0224191660454,29.8752393654359,38.8516324922235,49.467270942364,52.8971646870812,0.137524535678068,0.363880902020877,0.795368672198295,0.9649,0.723739490420292,0.107142857142857,0.0315759688075842,0.0325072397497194
13.9298860277084,56.591470204549,36.9262188248901,28.8722263431548,38.0051160426799,46.2658821572585,49.7864231384996,49.922511041536,21.4377434062738,33.0030277198061,43.644469897187,49.5874409004015,49.7962851925729,-0.0183182564933907,0.825957111223953,0.915787510310332,0.6637,0.842954480520548,0.178571428571429,0.0470894016976025,0.0223921016192016
12.0334803546667,55.4876389287111,32.3497948579237,21.2697097097428,32.2043100712404,40.3975054128755,47.3920510392429,48.5170095752189,16.6280767134705,28.6642261218044,39.2704739106651,46.6179432741527,47.9300746868836,-0.156105782952972,0.395294753409064,0.709334108531235,0.6109,0.443142391989129,0.142857142857143,0.0357972990221206,0.0294168892987107
13.451915064035,56.2888264757002,36.7776658149793,26.4518616475179,35.7613479885452,46.2800223825567,51.8576431244037,53.8871302119979,26.4518616475179,35.7613479885452,46.2800223825567,51.8576431244037,53.8871302119979,-0.190511621079477,0.321022587426028,0.580851153770866,0.7169,0.362018287025581,0,0.0487325560442056,0.0355800149342104
9.50281908503671,56.6725752140068,33.775834275984,27.8701359206346,33.0945136405867,41.9122211509677,45.3966315249117,46.2332006184596,16.0805893677037,31.3679711162496,40.5267688148065,44.8839932331991,45.6236199905937,-0.0842543660556642,0.88122307303727,0.844342105278446,0.4739,0.913749659829384,0.178571428571429,0.0424115680574797,0.013540436355547
12.045611981422,55.6367487778226,35.2418200928705,25.2765198396351,36.6735627783402,44.180920138033,48.985916402922,52.798335023193,24.5026156682667,33.6880992767129,43.2516883909763,48.6970068223556,51.8833545543279,-0.0701192989721587,0.510182987707476,0.488660677987586,0.7224,0.555815854139139,0.0714285714285714,0.0429182529343296,0.0286515493218633
9.71918309611454,57.22808676688,32.0940601240082,23.6644672699767,29.4209843943559,39.7386699517995,48.9494913786667,49.860096192108,21.7084992837499,28.3875648672023,37.7643683595888,47.1507561845248,49.5186193870675,-0.185227452422491,0.566719534844678,0.308154495639715,0.9796,0.919492633740675,0.107142857142857,0.0276147067933962,0.0230107879104744
12.0274460359855,55.5081028504974,35.2278301854341,27.6136377241899,33.514906619217,44.1263291163909,47.5171900225085,49.6070760912325,25.7965748593515,31.776037574407,43.608126520492,47.3580686136803,49.1055034347387,0.149593745326052,0.851166869142355,0.517003888242114,0.896,0.856631872573843,0.0714285714285714,0.0282354467126925,0.0136624108365903
17.6528473346162,58.1643613934155,35.9700896527177,29.9946891258359,36.6580471764531,42.2278173979476,43.9516078703502,47.8614607690462,27.4035071870371,35.8089433727529,41.2589787175669,43.8582249818638,46.9230960733592,-0.179253145283711,0.864421967889495,0.725493408176541,0.9555,0.878729825865959,0.0714285714285714,0.020341212012838,0.0123653401166084
17.6600851078126,48.4108635280234,33.0179846576302,25.8665023365113,31.5943951661469,41.0056108746698,44.9301040840971,45.1269256172623,25.2814911311782,31.1128053158753,40.1971340509134,44.7760817378697,45.121089364498,0.0856986710407773,0.223879291294573,0.609607414562566,0.6922,0.227631790347183,0.0357142857142857,0.00918105563570959,0.00436104836766771
12.8005250544518,56.6911479929833,35.4401897718833,23.5897404233474,37.2969932098303,47.9336432420373,52.5590411644599,53.4530882749874,19.4637426776919,32.796637786511,47.8744090256511,52.0966193136822,53.1178206085396,0.172577318205439,0.0702861260930674,0.149290382606914,0.4089,0.0704802104072619,0.107142857142857,0.0658351214394646,0.0488831588569097
13.4669234227538,50.0652665598877,33.3844116028867,25.8719779084533,36.0904899578614,40.0405242839688,43.0210385695609,43.3099451938485,22.0789486970085,34.0369630131806,39.5411910691491,42.5739717074669,43.1592113029158,-0.216205414675207,0.192334998377761,0.093087307338927,0.2256,0.419051716452212,0.142857142857143,0.0152476728752242,0.000313590668969743
12.8193786881827,59.256124031891,35.7337468587742,25.7231961561409,34.1062572683864,45.807992552232,49.8115444308887,53.0216169512396,22.779481389462,30.3043170062969,44.0740360710986,48.1044289158227,51.3467965058391,-0.0948940886159293,0.480458401267127,0.462842875873952,0.6147,0.585190131368517,0.142857142857143,0.0429335892514906,0.0364204136259783
18.5781937889117,53.6348659091318,37.3637637366569,28.3899258329449,37.4762746523478,47.7486083355929,49.8898233076984,51.5521893284473,25.4889870721298,37.0923539919677,44.6005007483399,49.4960082608536,50.9288020706665,0.112031174068642,0.220093806159846,0.625794360188337,0.7594,0.242986652007326,0.107142857142857,0.0372008428347756,0.0155410249424134
11.2545389395928,52.831833162621,34.3004575744867,26.829763736565,36.0796562697106,43.3025903123316,48.8991209189302,51.0488042123059,20.5959876072076,33.6900304372715,42.7625169233611,48.6785946728215,50.5328802218957,-0.0814754558851534,0.266199648287238,0.514136436231892,0.5016,0.320820275691929,0.0714285714285714,0.0470142755042113,0.0147463917350431
11.6276574065186,54.9173539285857,35.4377680460026,28.6285317144116,34.0170463523116,44.7493369669927,48.2362860227999,48.4755726052869,23.3164129390629,32.2018086781206,44.4235874958607,47.5724750833346,48.3507274318154,-0.0865927357255786,0.753844707924868,0.517308013854773,0.6252,0.780319960315683,0.142857142857143,0.0373543480002178,0.0126204252771619
22.7312412974782,58.5373079382677,38.5694168402522,28.3560093741548,36.9890028505947,48.3754542369112,51.7185796350259,53.1837452122036,28.1341268106166,36.2547485930687,47.9496831331977,51.4655444540362,53.0184547036325,-0.0482924083781387,0.0652257153011077,0.218742077360041,0.4967,0.0816043832436598,0.0357142857142857,0.0422969778174671,0.0486848971695185
13.8237670870527,57.6446029758017,38.0502748901128,32.5868868497281,36.8316696391331,45.3900537246768,50.8057220482376,53.3719055742847,28.2952350834019,35.9662995558586,44.539714971765,50.042346759686,52.409586752017,0.139755917964746,0.908789537127561,0.627269970556394,0.5451,0.909720477231954,0.107142857142857,0.0431522204451862,0.0222133975399792
13.1243833827741,56.8791685640719,33.6898720611627,24.3690886719614,33.6466326952756,45.1880563273112,49.350890770232,49.5410261029656,21.8269404833521,29.8623340893494,41.1778851939311,48.5370645448812,49.4697253531905,0.165664483756247,0.530878443776196,0.294684257643403,0.8378,0.612643152393682,0.107142857142857,0.031796642978779,0.0245899882194572
5.1766963747075,54.54153065177,34.9197469782697,27.2899083374228,37.447713346997,42.1040410537805,49.7508597701449,50.9897811191481,26.7865651498129,36.1585807585519,42.0841946066001,49.6627595745662,50.8328509618629,-0.139069424682724,0.446444006226948,0.725642061293717,0.4454,0.745060983152483,0.0357142857142857,0.0664182828811536,0.0132518532564837
26.7179356112577,51.7580645475084,37.8847818468403,30.1585681606733,38.323596245919,44.34367019357,47.7691088951276,47.9572649956825,29.3301159481812,34.951421312985,41.9133271586241,47.4506487445937,47.859096595393,0.00162478237535233,0.113862325288545,0.173462957226095,0.4717,0.122814258047144,0.142857142857143,0.00507870757288498,0.00859368973977648
17.9495656774645,53.0722255157429,33.3829170892534,21.5765625666255,34.4631094557378,40.7630924672718,46.5994251855567,50.1289121798008,20.8301966912187,34.0489771842027,40.1418080989323,46.5380334201979,49.6559901031346,-0.176576903529647,0.0667640406971609,0.239912075713358,0.6142,0.0517723014045773,0.0357142857142857,0.0239651985841681,0.020712072956972
8.94627599972184,55.8160302203401,33.807378535548,21.7174103343945,35.7624110156832,45.8633772320798,49.268515433602,49.3954777616639,15.4561431511202,32.5066099559419,42.6526973965967,48.9443146248209,49.3292365470229,-0.205539459101596,0.255787289137204,0.660688632437188,0.3689,0.258117263072778,0.142857142857143,0.0656631950584418,0.0327346148479252
2.58481526179232,54.2486575839339,30.730212512704,19.8762374280015,30.8620090797867,40.245120521313,46.5636973044954,46.7302046219846,16.427232565806,27.276659217189,38.1445841723339,46.3611467628754,46.6433312389468,-0.287370378680545,0.784451438459781,0.614214983427988,0.8234,0.778256533612661,0.142857142857143,0.0578299510802478,0.01826964310926
7.9329765502072,58.74383829894,36.5123444608175,27.3333690688115,39.0470712816346,45.3919333816646,48.5248875073221,49.7646579516874,0,30.4108027627437,44.7810371489436,46.5517192224986,48.1325268773893,-0.513816043041574,0.573477902074927,0.305905131252215,0.3294,0.791038841561703,0.285714285714286,0.073202346063692,0.0224421105714184
12.842891264006,56.7444883180655,35.3317037272708,26.0513810682303,33.2126382292119,41.2539916786756,53.4159685361947,53.4389339696115,23.9724576292123,30.1809002536253,40.6273879131195,52.7073627500494,53.4269520043505,-0.0644066768248009,0.19181989446652,0.482842085121459,0.904,0.392800010858473,0.142857142857143,0.0324453516345067,0.0309472335665755
3.72302429630067,58.4339567968948,35.4880327456064,29.5024762284793,32.8291158793193,46.2928531834284,53.9536584618217,54.823741953529,27.7879836313869,32.4843638240267,42.6539595789785,52.8842100422467,54.6149219155192,-0.120872663819573,0.303307960416615,0.197519199235346,0.3141,0.303928673535384,0.0714285714285714,0.0771525935398905,0.0338328484267021
10.2726775273924,57.4766394929593,31.6643081000078,24.7526812355425,29.7804784022044,35.0019206623264,46.2318894748124,46.7657133389276,20.8501605941323,28.7952015201757,33.8128799201514,45.665310997712,46.4871965402588,0.183071616639535,0.335176138219205,0.144614458114113,0.8483,0.8118810843146,0.142857142857143,0.0183872775478668,0.0167523964014973
8.82205410302257,56.6487817834291,34.4341356160809,24.0989072885727,37.3631528499622,46.8438389972907,52.9231156666315,53.7698312714188,18.3879297078138,33.7849318278803,45.2726125628198,51.9141079570363,53.5666195262699,-0.0126859820437107,0.257683323011312,0.551881588638458,0.4558,0.252396648380086,0.0714285714285714,0.0740751103382205,0.0416430255734017
14.7310735746975,58.4421171698521,33.6064386456334,23.6491465618072,30.4703808232771,43.0243072838522,53.6412296363502,53.7930345579707,20.1105167257011,26.8824751012194,34.6461315021131,53.1876924845727,53.6734127715966,0.0397554142965689,0.00861052855944793,0.0170897834948405,0.3921,0.245465015942146,0.178571428571429,0.0359756265595144,0.0560733671545968
16.8012421377962,59.1183951318475,35.8102812416841,27.0262813004624,34.4780548250637,42.4046489509162,45.821687224998,53.4944207133766,26.0332623648384,32.9519538763773,42.2524359814274,45.811091604274,51.6529646761657,0.141933244799477,0.359084525191683,0.851467477275637,0.996,0.820797557201864,0.0714285714285714,0.0275378539508416,0.0314917518754976
5.9889210266174,59.3868960134923,35.1023102629886,21.3122278324962,37.8085282650939,46.1839090143802,51.7074458381417,54.6184586951243,11.2886545536266,34.0482580012118,45.692548503096,49.8275160272628,52.660222381393,-0.100580021806087,0.245240455529564,0.44579973499748,0.1589,0.322038039744737,0.178571428571429,0.101602176827824,0.0485440705229379
7.7507553863334,58.4652229121354,31.2296158049612,24.9199412827423,30.5227526053105,38.8495923989842,39.6123471965812,42.9177699507833,5.81306653975005,26.9521991616091,34.7000390969869,39.3396852357929,39.5995618584636,0.161445971842221,0.604183388797021,0.285855342553376,0.6718,0.791980611505127,0.25,0.0277431990778543,0.0150226293308819
16.990935986333,56.9895396132798,34.6361705211042,28.3495094940669,33.9476661360691,41.0656344877355,48.4770861575481,48.8887600164819,23.7398703190785,33.2688867809539,40.1756658298557,47.5994537575219,48.7899582903378,0.275352744470723,0.767817243051882,0.994328419341951,0.8626,0.743312856716729,0.0714285714285714,0.0224615591935217,0.0142572299294107
13.7033445220778,53.3887830814759,32.796979542327,24.1843073871012,32.5544947179565,43.0394088279034,48.3925714869192,49.2083117244519,14.7374245043557,26.1214102537751,37.8957420684477,47.6390470702011,48.5025686567529,0.234682127958489,0.327905795304251,0.601488700309869,0.7337,0.406082972317679,0.214285714285714,0.0295922479212362,0.0243356259043745
9.90514060231981,51.4308767103947,34.6717217506411,28.2900761224369,35.4377790380297,41.1191395105955,45.3537218338038,45.5321164327831,28.0767565038699,34.7223554425907,40.6036961909268,45.0017226380766,45.4893017290281,0.0929123492665847,0.637943097771051,0.834010881381061,0.6456,0.985201911880754,0.0714285714285714,0.0189322473939753,0.000560383502420048
2.94333220353947,55.8400585623842,34.2527546250303,26.4901434090672,34.3372542993393,43.4232320414248,49.4485351637293,51.4078411818001,24.7747124648657,32.5097130763193,42.6365285638811,49.0660625320316,50.9376077374631,0.000636886619033657,0.719645282750845,0.773016619704161,0.6908,0.792011657730094,0.0714285714285714,0.0636846923153213,0.0151966945495398
14.8815588003978,57.774922180575,36.3494811220858,27.9918879189105,35.777849179586,43.4509694926302,46.1248143811855,46.3792733886463,27.6541357625784,35.7451676700076,43.1237659081683,46.002342355733,46.361275163827,0.151754387375646,0.663169250992521,0.843138136291899,0.9814,0.760060163325163,0.0357142857142857,0.0196505290411452,0.013530511287568
9.18931017334076,59.3523463327482,33.4845157436239,25.2831873802704,32.855957963934,40.9064258808124,45.2759034419094,47.6216085856668,15.4971684415515,27.8781558662147,40.0626414743288,43.272989307019,45.55689792014,-0.198149962838228,0.994882259127241,0.898632367204644,0.9341,0.998463307027584,0.214285714285714,0.0330663160949534,0.0182543560108592
6.40423378102382,58.7545315597136,35.6606328135525,28.0530762674992,36.3653145359942,45.280949119377,53.6950554343036,56.3880481365266,20.7713335521499,34.8363998447372,42.4444077974394,52.3377722734342,55.378175873193,0.0298850852822826,0.549789857994544,0.706790076489487,0.3397,0.603701906488018,0.107142857142857,0.0865812928906906,0.0421470135820388
