"min","max","mean","25%","50%","75%","88%","91%","25%_oob","50%_oob","75%_oob","88%_oob","91%_oob","cor_coef","pval_shap_norm","pval_lillie_norm","pval_ks_gamma","pval_shap_boxcox","prop_oob","prob_oob_ks_gamma","prob_oob_boxcox"
5.21051418772971,52.8029803593502,20.7671377854153,9.58537338305573,12.9197581265207,31.7369694956455,36.7926633790141,42.6148542839642,9.58537338305573,12.9197581265207,31.7369694956455,36.7926633790141,42.6148542839642,-0.0247956869120068,0.00137785489256528,0.000405459339343437,0.2033,0.0634668481346601,0,0.0141841413059799,0.0423223708129624
1.40785258662959,52.8815423334138,17.2769944589822,7.88876509558653,13.5532789688007,20.6537259870166,35.7218399499255,41.3516599928813,7.88876509558653,13.5532789688007,20.6537259870166,35.7218399499255,41.3516599928813,-0.401682082611212,0.000931443820366605,0.00535028901233068,0.9271,0.945665212702913,0,0.0113109418134479,0.0201967942003877
3.17956561646759,50.1579684925243,15.3325718318809,8.64279961369125,11.0585698844378,15.4002942824117,29.8684349211238,34.0016999622635,8.64279961369125,11.0585698844378,15.4002942824117,29.8684349211238,34.0016999622635,-0.184685013098186,0.0000195676094617925,0.0000000131175887101755,0.0264,0.0710529396035809,0,0.00150548196587152,0.0170737162157534
4.88421888598463,47.3886015813238,14.4031386455482,8.46126082624427,12.6106082530597,16.6382072417135,23.2451654134963,24.6908957051308,8.29155079457886,12.2169732978175,16.6138711055147,22.7162405972324,24.5658767766712,-0.152950628053973,0.000157640311261979,0.0300701155025355,0.6815,0.986808943794565,0.0357142857142857,0.000102072155920063,0.00685408293157963
4.22301256814085,40.1902465833091,15.9218259115697,9.63787242939869,13.2777595705279,20.5898289706098,27.3489346574357,28.8823997556716,9.21563648099238,12.9798247203311,20.5602767569361,26.8615087516854,28.7397580476054,0.31001746230982,0.0196990271810211,0.00871673261683305,0.6327,0.940143892898107,0.0357142857142857,0.000576275694787576,0.00440181218325308
5.04132823950738,44.7414787861211,17.2965923615793,10.0552654912317,14.4011971513548,23.3987137618066,27.651965591009,33.5164825150507,10.0552654912317,14.4011971513548,23.3987137618066,27.651965591009,33.5164825150507,-0.25626815065593,0.00997535580409667,0.114137958231689,0.8022,0.566293525808653,0,0.00197047432816699,0.0107314344457691
5.15858952234366,49.7807106918562,16.7520223929896,8.91927752977599,14.8517396051444,20.3594276666632,26.9512516191874,28.7365268785028,8.79756844317479,14.5685593616787,19.9133869628034,26.7183454931727,28.5248401785072,-0.0810550451740051,0.0011352600455487,0.0245528091462668,0.7721,0.720086455637217,0.0357142857142857,0.000486666050389162,0.00824026498448605
1.95794381131677,54.9331686191246,18.870047270281,9.89054194137881,15.7970883329169,22.9627210760416,31.9197597351924,41.7499874426816,9.89054194137881,15.7970883329169,22.9627210760416,31.9197597351924,41.7499874426816,0.473837616385572,0.000778047642630514,0.0390220288129005,0.9157,0.846847483717171,0,0.0110689954168022,0.0181709055360315
3.38687649250566,56.7213521012622,17.0784507110751,8.29959942527783,13.0032956364434,22.7419049502139,29.9654179076037,32.3598000759208,8.29959942527783,13.0032956364434,22.7419049502139,29.9654179076037,32.3598000759208,0.188861674712622,0.000826311830947247,0.0294010697633858,0.4624,0.887080999547603,0,0.00507558312574041,0.0215602897864398
4.55351513203509,48.2368142516586,18.0084417097232,9.17382107716831,13.3681969492358,23.9563542907056,37.5037742926282,38.5122002147575,9.17382107716831,13.3681969492358,23.9563542907056,37.5037742926282,38.5122002147575,0.00907258933686833,0.000795616637639765,0.000826472636384625,0.5564,0.405011916755886,0,0.0060970308545838,0.0258531298844233
4.83957457758759,53.9106151665599,20.133815936304,11.3192450269053,13.4789388514908,29.6491243717894,36.8132539881594,39.4778536120231,11.3192450269053,13.4789388514908,29.6491243717894,36.8132539881594,39.4778536120231,-0.135469739432043,0.00357837095675011,0.0012963398480851,0.2942,0.529775358369487,0,0.00953508552001359,0.027303315920286
3.16596706895259,55.5847970561518,17.726114809862,9.39760605415704,14.7310320365667,19.6616293197725,28.9446186207502,31.281734495384,9.39760605415704,14.7310320365667,19.6616293197725,28.9446186207502,31.281734495384,-0.233908511249201,0.0000727489635782368,0.00220927812510703,0.7081,0.808004587833149,0,0.00353896493941164,0.014050044830341
4.88153357665089,54.2380592302188,16.8832385812902,8.42888700529985,13.5500192785101,19.6294384456277,28.5783650424007,32.4008917185997,8.21462961161393,12.8593110445064,19.5326828763939,28.3466530449922,31.9112351714919,-0.37663929828429,0.000363210710322149,0.0175383806983298,0.7329,0.92997337002319,0.0357142857142857,0.00277939045536468,0.0225227297346705
7.30333849609611,48.5096483405977,16.8131711992526,10.636815019263,13.7187241435009,21.1473295529207,25.7036881841332,27.4716101429353,9.60836321593657,12.8647676635971,21.0520099360791,25.3798714145774,27.0473088728228,-0.410280683738055,0.000638990582887987,0.00578604195088332,0.505,0.8396764805832,0.0714285714285714,0.000275423051828705,0.0133230176160423
2.81457100594986,24.9148671316243,14.1912687616303,10.3183854014172,13.7011909297107,18.2439007158944,21.5712880398438,22.3333584707718,10.3183854014172,13.7011909297107,18.2439007158944,21.5712880398438,22.3333584707718,-0.137425574121942,0.454458386489495,0.562324392434416,0.9255,0.61899855487122,0,0.00000793947971911013,0.00000000415301515399591
3.5221447750614,44.883840830215,15.8708125208229,9.78942456880316,14.0975184915889,18.6503229447301,28.4743622234024,32.0687726729292,9.78942456880316,14.0975184915889,18.6503229447301,28.4743622234024,32.0687726729292,0.1435220560517,0.00243044727943248,0.0234543539870823,0.8095,0.882750643621203,0,0.000592689000952551,0.00326847420299059
2.00468445348614,45.1237194199506,18.4489544621371,11.2779070576616,16.1122692064255,22.4839187657313,28.1310180019116,35.1329076666112,11.2779070576616,16.1122692064255,22.4839187657313,28.1310180019116,35.1329076666112,-0.214802087776788,0.0267685264455558,0.208540735287722,0.8172,0.752482865892851,0,0.00404275363192963,0.00289130595612974
2.29802425602765,45.7784063572131,20.8943725697966,11.4569544285279,19.4065113914233,27.5965359196155,36.1657279867974,42.5275591236709,9.92157675630748,16.9820284599465,26.3642661748552,36.1196057993327,41.0007196508212,-0.00469610757150795,0.106543408543864,0.144393489406168,0.9878,0.748993303947666,0.0714285714285714,0.0157572084253488,0.0121113611987723
2.9644000024836,38.781417235612,16.4234021235637,11.1040291154075,15.3029497376164,21.7295001107716,26.9564305137227,28.0743017171746,11.1040291154075,15.3029497376164,21.7295001107716,26.9564305137227,28.0743017171746,0.22751504858117,0.250948374975336,0.0616963878919855,0.9325,0.931231201613488,0,0.000434067178239572,0.000124928519048439
4.47496775257596,39.1353120124977,14.9085316437163,8.47649651620684,11.9957839810882,16.9817412694681,23.2267207166812,29.9002306918904,6.51121840173611,11.8080093548873,16.8636184151964,22.0094422737567,27.397664451187,0.21889045424293,0.00674406154484382,0.0589179397612868,0.9344,0.684695752851269,0.107142857142857,0.000414070682120626,0.00548549228348483
5.16337116544973,47.0404652086118,17.1532354635852,10.0170472656906,15.4290279248616,20.1449873261776,28.5722390344147,30.5219556044957,10.0170472656906,15.4290279248616,20.1449873261776,28.5722390344147,30.5219556044957,-0.0242689465883677,0.00678025456653818,0.147619113122563,0.9725,0.845053167687854,0,0.000898360882421678,0.00559618843833876
1.42835830023198,49.4000066054466,18.5690527654341,9.37150377487592,16.4393254845783,24.8665002929608,33.0504999606348,35.45707131662,9.37150377487592,16.4393254845783,24.8665002929608,33.0504999606348,35.45707131662,0.0420201520869996,0.107991373592993,0.186158809618581,0.9979,0.993039061164956,0,0.00903944199014095,0.00750649790555269
6.84043955443068,46.0341956128957,18.6260591833584,11.6740370781357,14.9594157098618,23.0405650739091,29.845021151215,34.5364721020451,11.6740370781357,14.9594157098618,23.0405650739091,29.845021151215,34.5364721020451,-0.238585098043041,0.00278155583584665,0.022968638652287,0.608,0.929700027395696,0,0.000902823037081779,0.0131471371282113
5.98112705046386,53.8828290959685,19.0383891992897,11.5570629857779,16.7324713943667,21.2894510553989,28.8800087049147,33.4693191866797,10.61052249588,15.6208159204587,21.0649014533513,27.8923709852487,32.3678846710561,-0.0180044497205482,0.000693369486983907,0.0186506239082865,0.8274,0.964599983299166,0.0714285714285714,0.00231581494693955,0.0139145762910803
2.21908909106242,56.6167417940824,18.1353341863621,10.2819726705188,16.0999127185497,22.0747106325342,29.3404171056757,33.0641440207882,10.2819726705188,16.0999127185497,22.0747106325342,29.3404171056757,33.0641440207882,0.205392078271239,0.00754987086889281,0.22017251682972,0.997,0.999628294033096,0,0.00523990371161154,0.00848397958951874
2.74234181701672,49.7718937874472,18.2491373069749,10.9886885168461,13.8638574973517,20.9850434734835,33.1757727215957,37.1538824406904,10.9886885168461,13.8638574973517,20.9850434734835,33.1757727215957,37.1538824406904,-0.174353071831457,0.000884565449132756,0.00093889139700868,0.4623,0.376250430640914,0,0.00373943599445103,0.00951330013310392
5.33600339941351,45.9788246617682,17.8705589289532,9.21194600498406,14.2643996186814,22.5947576143628,30.7147951031682,31.8798905238781,9.21194600498406,14.2643996186814,22.5947576143628,30.7147951031682,31.8798905238781,-0.158030345508004,0.00513307075761365,0.0463936985727655,0.88,0.818113131174663,0,0.00168821370259176,0.0133165930812164
5.8098301738647,39.1262939180335,18.0245351155149,9.5825947759966,14.6308301815914,25.6404624950598,36.0964618944415,37.0339797351826,7.80925554966439,12.2605621420261,24.8264080320074,33.9115947342324,36.6824105449047,0.274286535865503,0.00628181074788838,0.0547876057396932,0.684,0.137067418367172,0.107142857142857,0.00311807346536486,0.016055092470449
5.41628851634786,45.5331571488101,14.7495066259475,9.05023795515491,11.3292070445769,16.157200705301,26.5166125967307,30.3817047806707,8.75570274183689,11.2596558676753,16.1216138429286,25.2859520570141,30.022464101913,0.346477359496283,0.0000544315798221177,0.000107339074619723,0.3375,0.592233142757596,0.0357142857142857,0.000291322715182951,0.0130943239250324
6.84273707825831,49.6358645284838,17.7908758025412,10.0878405022314,13.2534343802824,19.613922862489,33.9988874242174,34.6275221083902,10.113515644446,13.3491344853279,20.0605845961684,34.6799421381715,42.8444585011207,-0.13311118787597,0.0000365825707269349,0.0000471197879491301,0.0911,0.540964722363869,0,0.00188033693235312,0.0277836951288806
2.36143654055186,38.2392099380798,14.321704991623,10.3216844432683,12.7404199165248,17.4825282459846,23.5660638693832,25.6724537845558,10.3216844432683,12.7404199165248,17.4825282459846,23.5660638693832,25.6724537845558,-0.317548199693961,0.0409352867454029,0.027117028270374,0.7418,0.826287972470452,0,0.000242389536535104,0.000186087581970029
4.68303960502175,43.9005464727753,20.6741705690949,11.7866923673633,18.7051698124145,24.8445046808011,39.2635888172073,40.4644511183729,11.7866923673633,18.7051698124145,24.8445046808011,39.2635888172073,40.4644511183729,-0.0148155561501804,0.0100973381061143,0.0404504578900753,0.8511,0.534738450326996,0,0.00594920397893905,0.0127059170527988
4.31785839905321,46.5986463615056,19.2541772144682,11.1212211925543,15.4857488279582,26.6441473764698,30.9553045324525,31.7981869259585,10.8254402709459,15.4135123417228,26.3089921701042,30.9140106477308,31.6888794020333,-0.249387864741892,0.0439532131785296,0.0984287909462466,0.9239,0.934982320447717,0.0357142857142857,0.00317046022670475,0.00822830888792081
0.958753382534446,41.6349033349944,13.3462507040614,7.99055744414674,12.1947517386466,15.3927157889909,21.3828670215344,23.745758330744,7.99055744414674,12.1947517386466,15.3927157889909,21.3828670215344,23.745758330744,0.202091334937056,0.00202274562327318,0.0357379412226874,0.8098,0.45853193550307,0,0.000249046403370201,0.00019024821571223
4.2059677348844,33.7241783301575,17.9037747164267,10.571043967444,17.4628484009083,24.1927472431393,27.5631613309476,30.2865822673951,9.58690628182453,14.6699172758701,23.4922059920987,27.062949517032,29.2652994162273,-0.0209918985863651,0.310015785941141,0.378728555905845,0.9571,0.687051451147913,0.107142857142857,0.000511967305867,0.000250073763977898
8.28374635414677,38.0677264660298,19.3446808395772,13.7612611721722,17.9004599858653,23.0917608171456,28.8133221354953,29.1843513947117,12.5511196888573,17.6169925519211,22.6425610180228,28.5194401424058,29.0953043724998,0.0230814080327165,0.326065582772219,0.70462417314145,0.9686,0.959282369259118,0.0714285714285714,0.0000866123606390046,0.000538827598777436
1.47281601317822,39.6001206924847,13.9170040881346,8.18037810660619,11.930447363638,15.7520635363161,26.9783311698577,29.8408270026612,7.56687824604592,11.6900803933687,14.9486890671314,25.7576046898392,29.6169493636451,0.347941114098329,0.000805956994425127,0.000700822921256696,0.5481,0.517503662551292,0.0357142857142857,0.000802647581157778,0.00238321468192526
2.87894545693708,50.5846522446955,16.3021489154655,9.80753216355027,13.8187394030254,19.9854798537996,22.583594410761,26.2828723675023,9.80753216355027,13.8187394030254,19.9854798537996,22.583594410761,26.2828723675023,0.231017715206738,0.000605085835659362,0.0612976842777953,0.8909,0.946793088905583,0,0.00111758508101045,0.00461481244671569
5.13367535653681,39.4673511238119,18.6391972731906,11.3370581338717,15.0069319230434,26.5738709260697,30.4456083646496,30.9954967625309,11.3370581338717,15.0069319230434,26.5738709260697,30.4456083646496,30.9954967625309,-0.373976844484932,0.0493526103902945,0.0441522239044486,0.701,0.53907222775012,0,0.00135234521655381,0.00376280532676532
3.21213333016506,31.314837790918,13.4623934181848,9.8812476023895,11.6198615377847,14.4687343462561,22.305519048574,24.1409933385476,9.8812476023895,11.6198615377847,14.4687343462561,22.305519048574,24.1409933385476,-0.376286301333043,0.00999873256492675,0.00389176936835326,0.5509,0.533995370359983,0,0.00000505090474756109,0.0000529808418568978
6.19188421224338,37.6121078813534,16.8456996941529,12.1928347030228,15.6417094195672,20.6410786600112,25.0476138504352,26.0102502363028,11.6154530855802,15.5744557664932,20.4468925455589,24.7477318174504,25.9198746427278,0.270020389252657,0.212806205603204,0.732178581406177,0.9999,0.9862694638403,0.0357142857142857,0.0000255026775239919,0.000110672002787138
2.62680367705116,32.4699742167047,14.2567080986984,8.59145297791324,10.9921851001014,17.7641362391211,25.2506007114038,26.9057521609809,8.24384433729535,10.69511182134,17.5240171077698,25.1464251823988,26.6942554445393,0.31093282402322,0.0244989147467985,0.0361068785939347,0.7791,0.776641075377853,0.0357142857142857,0.000216645853403086,0.000869519736237057
6.41336801675335,47.0789779219336,19.6299400424649,12.4229415191887,18.4303253901262,23.3545935368527,30.9540305116083,34.0975064374903,12.4229415191887,18.4303253901262,23.3545935368527,30.9540305116083,34.0975064374903,-0.145939033508428,0.00706355351096662,0.0208129915800924,0.8073,0.932314363233541,0,0.00147241684152599,0.0107556592444161
3.49837937116836,48.883833046426,20.4026560150377,10.6494084001034,15.8202720585508,26.7775416236133,37.8285807487824,40.3942720629619,10.6494084001034,15.8202720585508,26.7775416236133,37.8285807487824,40.3942720629619,-0.218115373320716,0.00853126464972804,0.0294349723895437,0.6201,0.599029003901591,0,0.0104376259861193,0.0210841272546409
2.92262759887111,35.4987778593846,14.1019893545029,8.79675352060213,11.5422617301841,17.8788988080744,24.3594388969995,29.1417544889803,8.26597624739194,11.1162456566952,16.2109884601458,24.1142087027218,28.5230610256572,0.0475929232720006,0.00448206940035571,0.00160117921740429,0.5696,0.645274698979279,0.0357142857142857,0.000335839125316872,0.0026376577268703
2.56779984473142,50.9369958795567,20.0140489559565,13.3147357364298,15.9942396498792,23.2780491934405,36.9506883647391,38.2750157009138,12.8380837060568,15.5889158854435,23.0733230317085,36.9430082135289,38.0954729029641,0.125202289578244,0.00849419896904637,0.00780989675755956,0.6675,0.411357715081337,0.0357142857142857,0.00566167375784921,0.00736099331849205
2.2736844711777,39.6945787378909,17.5268461724541,9.7539776530189,13.9265161027705,24.5184069204602,33.5425571909385,35.9772463303537,8.56180016921189,13.6584709542397,22.435641576142,32.7112655132509,35.3929209368941,-0.395230371262999,0.024500059196879,0.049760359975699,0.9695,0.667799852584589,0.0714285714285714,0.00402584982343424,0.005114678958418
1.17716409220458,56.2101759700074,19.9473433914212,10.7266313681513,14.9172628180455,27.7111585419808,37.2913013264196,38.3715787741669,10.3956907212371,14.7858286067373,26.8792873233108,37.0846975540868,38.2524414547922,0.101047292095708,0.0723158880943677,0.0658102122553935,0.9408,0.979438359465033,0.0357142857142857,0.0189860325782352,0.0151314994597906
3.67025062872442,49.069877232454,17.8690392295346,11.7651384868748,14.739748345948,22.0524351271984,25.2766166464559,26.4204520485553,9.81169642548786,14.3736982712418,22.0475528890646,24.9875146704962,26.1459315520515,0.0104080894415169,0.00184750158202744,0.159390115554702,0.9564,0.836906756431269,0.0714285714285714,0.00138164631025151,0.0046827549112054
